{
  "type": "service_account",
  "project_id": "mindwise-83ddb",
  "private_key_id": "9879c6b33a32422a9afcded988d1d06e9f1f0f98",
  "private_key": "-----BEGIN PRIVATE KEY-----\nMIIEvQIBADANBgkqhkiG9w0BAQEFAASCBKcwggSjAgEAAoIBAQDeHxPev0YjZkSy\nLfEO744Bh5abBGC1Jh42WX2t3Ax/fy7iq7Bk1QHFOSn29yAzDcl6QIjsNqeHIylJ\n19bIr1mFplLDS26lVDuHzAKhuZteoRvdxOYQI0Ury9XYTWuzKOJlnIMlzrwl7/Tu\n3cRRR7PurGBAVXxw2Ci2XSxhPNmz877wLLHnjjIhgNHuZ0jhdWD5e/oMQJnCPcQY\nAQxsgGbWl4FI0XuK4KA0dbGzfo2z4WtvLsW4CwA/ymNVZ5tEOXtC2V2c21Yp57OY\n34PbQvo08bAoesclXFJQO6cjdrsCogrTd4VsJ2AB401epZuevCA0BbBdLii4naz9\nRfVfdbX1AgMBAAECggEAEynUPDNSuPV293Zo5enQsxzAZ3G6aYvh2bzhJRxR2bge\nfUDkcDaZDKvGDUAR6kWwvG2P7UKOiTqv3RE+6cPdxzRBJLHqgwoK3shA8TStt718\n8CZaK59CCv7EMtavHt8Sn+31D1B67BJRQUB8fP9g1zZ4/A6ZX1+kLOOfU2j9Zqh3\nhxo/yRczsxfmnGNPxlNDNW9mv7cu7ktZVwNIUQu38l8edRov0BsmUE7Bwa5QJWvl\n5GpLgEPW1lC/YbcjZzyPIbN9WhlWVRjhXRb2vLyiv3bDpHOl8hqfNpuRre8M1YHd\nV9M69o2pZ2+cUH0fnxJojnCQ5fNb7GwTQA6pIvjD2wKBgQD1C8ujetDE0u/erMKp\nToro5iFFAL5twlJY13kjw1Y8jal2mOMY4BYXNUhWEvoeRijf0+xcrLynRBZ+0MCQ\nPQA7nP+dNELCFOJ9Z5YzsGp3BqmdcemTC4tgO3+ryrOS530Cscng1HqwqKLhW2aD\nh0P3lIMCLHzxaR30Lw6GLqQKXwKBgQDoDPEV4UY3YH+nKAzjLD4XyVhcDnomvbhw\nczRllBZEPT7eJd6aWAM5iepxscttybxKAIECOAf9ttVjYljkBz965x5V1tH8Ambz\nMzIf2TITyAgrE79zTYDtjtysZlW4GtdjvVmifUfEEr+IDo+RXPHPdztLZX7WM+NQ\ng1VgOIsIKwKBgBKF87zF2eYm887nTEe0EjgMvVMT/VEasVLZ5uRXLbuiEb9PS0tk\nFQdoFbG7+YA0WX6h7GoM/K3ALdskOIouskfPVFszyiAVqBFGtUnu+f1JWaT3KWre\nIokBtmLsDar7KK39dn8yUJvuA3H5kMQ8g1zBsy2E42T0RzlgHT7zY58NAoGASKN8\neE/rbfxMGWRFHHvF+CYz/aUegbAT40d82GtRyQyu+FU8aG4ynDla5To1pulmgnfD\n6pDll3s7MwAfOUo3id59NXuogc2ysmCNSUDxFxYf0HQ/EvXo7PQyidkC7j2gvP0R\n6PZ0l6ESyaFdObCxlTMKoaBk4uKdPp/OAu/QPb8CgYEAz9192iq44ZEKJ6QsoSFI\nE2gaTC2Ls71cbCs4J9FSTHxKzgQ2v3syRzG1Z/mA/WITSssIj6W9MqcZwSHw+W9S\nywUJHC8CHXSU//ouVLEqYfHK1eEDjUpL05X5E94h60EhJIQgjU01QQf9n2wugi+7\nmNR1Hb5Kan4+IkFX71xLqeA=\n-----END PRIVATE KEY-----\n",
  "client_email": "node2-315@mindwise-83ddb.iam.gserviceaccount.com",
  "client_id": "101949485341799401722",
  "auth_uri": "https://accounts.google.com/o/oauth2/auth",
  "token_uri": "https://accounts.google.com/o/oauth2/token",
  "auth_provider_x509_cert_url": "https://www.googleapis.com/oauth2/v1/certs",
  "client_x509_cert_url": "https://www.googleapis.com/robot/v1/metadata/x509/node2-315%40mindwise-83ddb.iam.gserviceaccount.com"
}
